%YAML 1.1
%TAG !u! tag:unity3d.com,2011:
--- !u!114 &11400000
MonoBehaviour:
  m_ObjectHideFlags: 0
  m_CorrespondingSourceObject: {fileID: 0}
  m_PrefabInstance: {fileID: 0}
  m_PrefabAsset: {fileID: 0}
  m_GameObject: {fileID: 0}
  m_Enabled: 1
  m_EditorHideFlags: 0
  m_Script: {fileID: 11500000, guid: e90911e410742a1498a167540c7865bf, type: 3}
  m_Name: Pose_Book_003
  m_EditorClassIdentifier: 
  leftHand:
    inputSource: 1
    thumbFingerMovementType: 0
    indexFingerMovementType: 0
    middleFingerMovementType: 0
    ringFingerMovementType: 2
    pinkyFingerMovementType: 2
    ignoreRootPoseData: 1
    ignoreWristPoseData: 1
    position: {x: 0.03489082, y: -0.15558846, z: -0.08825594}
    rotation: {x: -0.11863169, y: 0.9663746, z: 0.2187517, w: -0.06476428}
    bonePositions:
    - {x: -0, y: 0, z: 0}
    - {x: -0.034037687, y: 0.03650266, z: 0.16472164}
    - {x: -0.012083233, y: 0.028070247, z: 0.025049694}
    - {x: 0.040405963, y: -0.000000051561553, z: 0.000000045447194}
    - {x: 0.032516792, y: -0.000000051137583, z: -0.000000012933195}
    - {x: 0.030463902, y: 0.00000016269207, z: 0.0000000792839}
    - {x: 0.0006324522, y: 0.026866155, z: 0.015001948}
    - {x: 0.074204385, y: 0.005002201, z: -0.00023377323}
    - {x: 0.043930072, y: 0.000000059567498, z: 0.00000018367103}
    - {x: 0.02869547, y: -0.00000009398158, z: -0.00000012649753}
    - {x: 0.022821384, y: -0.00000014365155, z: 0.00000007651614}
    - {x: 0.0021773134, y: 0.007119544, z: 0.016318738}
    - {x: 0.07095288, y: -0.00077883265, z: -0.000997186}
    - {x: 0.043108486, y: -0.00000009950596, z: -0.0000000067041825}
    - {x: 0.033266045, y: -0.00000001320567, z: -0.000000021670374}
    - {x: 0.025892371, y: 0.00000009984198, z: -0.0000000020352908}
    - {x: 0.0005134356, y: -0.0065451227, z: 0.016347693}
    - {x: 0.06587581, y: -0.0017857892, z: -0.00069344096}
    - {x: 0.04069671, y: -0.000000095347104, z: -0.000000022934731}
    - {x: 0.028746964, y: 0.00000010089892, z: 0.000000045306827}
    - {x: 0.022430236, y: 0.00000010846127, z: -0.000000017428562}
    - {x: -0.002478151, y: -0.01898137, z: 0.015213584}
    - {x: 0.0628784, y: -0.0028440945, z: -0.0003315112}
    - {x: 0.030219711, y: -0.00000003418319, z: -0.00000009332872}
    - {x: 0.018186597, y: -0.0000000050220166, z: -0.00000020934549}
    - {x: 0.01801794, y: -0.0000000200012, z: 0.0000000659746}
    - {x: -0.0060591106, y: 0.05628522, z: 0.060063843}
    - {x: -0.04041555, y: -0.043017667, z: 0.019344581}
    - {x: -0.03935372, y: -0.07567404, z: 0.047048334}
    - {x: -0.038340144, y: -0.09098663, z: 0.08257892}
    - {x: -0.031805996, y: -0.08721431, z: 0.12101539}
    boneRotations:
    - {x: -6.123234e-17, y: 1, z: 6.123234e-17, w: -0.00000004371139}
    - {x: -0.078608155, y: -0.92027926, z: 0.3792963, w: -0.055146642}
    - {x: -0.22517109, y: -0.65568805, z: 0.50336933, w: 0.5157427}
    - {x: 0.08026847, y: -0.028535213, z: 0.0555728, w: 0.9948138}
    - {x: 0.00996915, y: -0.019725714, z: -0.3800194, w: 0.92471445}
    - {x: -1.3877788e-17, y: -1.3877788e-17, z: -5.551115e-17, w: 1}
    - {x: -0.6789131, y: -0.3637766, z: -0.4391962, w: 0.4624395}
    - {x: 0.009187101, y: 0.038669925, z: -0.032061692, w: 0.9986953}
    - {x: 0.041413225, y: 0.01969626, z: -0.42970315, w: 0.901805}
    - {x: 0.0018504566, y: 0.022782495, z: 0.013409463, w: 0.9996488}
    - {x: 6.938894e-18, y: 1.9428903e-16, z: -1.348151e-33, w: 1}
    - {x: -0.56778836, y: -0.43452522, z: -0.4165727, w: 0.5614905}
    - {x: -0.16726136, y: 0.0789587, z: -0.06936778, w: 0.9802945}
    - {x: 0.020879874, y: -0.008946887, z: -0.2712565, w: 0.9622391}
    - {x: -0.003327809, y: 0.028225154, z: 0.066315144, w: 0.9973939}
    - {x: 1.1639192e-17, y: -5.602331e-17, z: -0.040125635, w: 0.9991947}
    - {x: -0.5166922, y: -0.4298879, z: -0.49554786, w: 0.5501435}
    - {x: -0.053384315, y: 0.10470239, z: -0.021485232, w: 0.99283737}
    - {x: -0.0021897142, y: -0.0004703104, z: -0.23757051, w: 0.9713678}
    - {x: -0.00072132144, y: 0.012692659, z: -0.040420394, w: 0.9991019}
    - {x: 6.938894e-18, y: -9.62965e-35, z: -1.3877788e-17, w: 1}
    - {x: -0.5269183, y: -0.32674035, z: -0.5840246, w: 0.52394}
    - {x: -0.059614867, y: 0.13516304, z: -0.06913207, w: 0.9866093}
    - {x: 0.0018961236, y: 0.00013150928, z: -0.10644623, w: 0.99431664}
    - {x: -0.00201019, y: 0.052079126, z: 0.073525675, w: 0.99593055}
    - {x: 0, y: 0, z: 1.9081958e-17, w: 1}
    - {x: 0.20274544, y: 0.59426665, z: 0.2494411, w: 0.73723847}
    - {x: 0.6235274, y: -0.66380864, z: -0.29373443, w: -0.29033053}
    - {x: 0.6780625, y: -0.6592852, z: -0.26568344, w: -0.18704711}
    - {x: 0.7367927, y: -0.6347571, z: -0.14393571, w: -0.18303718}
    - {x: 0.7584072, y: -0.6393418, z: -0.12667806, w: -0.0036594148}
  rightHand:
    inputSource: 2
    thumbFingerMovementType: 0
    indexFingerMovementType: 0
    middleFingerMovementType: 0
    ringFingerMovementType: 2
    pinkyFingerMovementType: 2
    ignoreRootPoseData: 1
    ignoreWristPoseData: 1
    position: {x: -0.03489082, y: -0.15558846, z: -0.08825594}
    rotation: {x: 0.11863169, y: 0.9663746, z: 0.2187517, w: 0.06476428}
    bonePositions:
    - {x: -0, y: 0, z: 0}
    - {x: -0.034037687, y: 0.03650266, z: 0.16472164}
    - {x: -0.012083233, y: 0.028070247, z: 0.025049694}
    - {x: 0.040405963, y: -0.000000051561553, z: 0.000000045447194}
    - {x: 0.032516792, y: -0.000000051137583, z: -0.000000012933195}
    - {x: 0.030463902, y: 0.00000016269207, z: 0.0000000792839}
    - {x: 0.0006324522, y: 0.026866155, z: 0.015001948}
    - {x: 0.074204385, y: 0.005002201, z: -0.00023377323}
    - {x: 0.043930072, y: 0.000000059567498, z: 0.00000018367103}
    - {x: 0.02869547, y: -0.00000009398158, z: -0.00000012649753}
    - {x: 0.022821384, y: -0.00000014365155, z: 0.00000007651614}
    - {x: 0.0021773134, y: 0.007119544, z: 0.016318738}
    - {x: 0.07095288, y: -0.00077883265, z: -0.000997186}
    - {x: 0.043108486, y: -0.00000009950596, z: -0.0000000067041825}
    - {x: 0.033266045, y: -0.00000001320567, z: -0.000000021670374}
    - {x: 0.025892371, y: 0.00000009984198, z: -0.0000000020352908}
    - {x: 0.0005134356, y: -0.0065451227, z: 0.016347693}
    - {x: 0.06587581, y: -0.0017857892, z: -0.00069344096}
    - {x: 0.04069671, y: -0.000000095347104, z: -0.000000022934731}
    - {x: 0.028746964, y: 0.00000010089892, z: 0.000000045306827}
    - {x: 0.022430236, y: 0.00000010846127, z: -0.000000017428562}
    - {x: -0.002478151, y: -0.01898137, z: 0.015213584}
    - {x: 0.0628784, y: -0.0028440945, z: -0.0003315112}
    - {x: 0.030219711, y: -0.00000003418319, z: -0.00000009332872}
    - {x: 0.018186597, y: -0.0000000050220166, z: -0.00000020934549}
    - {x: 0.01801794, y: -0.0000000200012, z: 0.0000000659746}
    - {x: -0.0060591106, y: 0.05628522, z: 0.060063843}
    - {x: -0.04041555, y: -0.043017667, z: 0.019344581}
    - {x: -0.03935372, y: -0.07567404, z: 0.047048334}
    - {x: -0.038340144, y: -0.09098663, z: 0.08257892}
    - {x: -0.031805996, y: -0.08721431, z: 0.12101539}
    boneRotations:
    - {x: -6.123234e-17, y: 1, z: 6.123234e-17, w: -0.00000004371139}
    - {x: -0.078608155, y: -0.92027926, z: 0.3792963, w: -0.055146642}
    - {x: -0.22517109, y: -0.65568805, z: 0.50336933, w: 0.5157427}
    - {x: 0.08026847, y: -0.028535213, z: 0.0555728, w: 0.9948138}
    - {x: 0.00996915, y: -0.019725714, z: -0.3800194, w: 0.92471445}
    - {x: -1.3877788e-17, y: -1.3877788e-17, z: -5.551115e-17, w: 1}
    - {x: -0.6789131, y: -0.3637766, z: -0.4391962, w: 0.4624395}
    - {x: 0.009187101, y: 0.038669925, z: -0.032061692, w: 0.9986953}
    - {x: 0.04141322, y: 0.01969626, z: -0.42970312, w: 0.901805}
    - {x: 0.0018504566, y: 0.022782495, z: 0.013409463, w: 0.9996488}
    - {x: 6.938894e-18, y: 1.9428903e-16, z: -1.348151e-33, w: 1}
    - {x: -0.56778836, y: -0.43452522, z: -0.4165727, w: 0.5614905}
    - {x: -0.16726136, y: 0.0789587, z: -0.06936778, w: 0.9802945}
    - {x: 0.020879874, y: -0.008946887, z: -0.2712565, w: 0.9622391}
    - {x: -0.003327809, y: 0.028225154, z: 0.066315144, w: 0.9973939}
    - {x: 1.1639192e-17, y: -5.602331e-17, z: -0.040125635, w: 0.9991947}
    - {x: -0.5166922, y: -0.4298879, z: -0.49554786, w: 0.5501435}
    - {x: -0.053384315, y: 0.10470239, z: -0.021485232, w: 0.99283737}
    - {x: -0.0021897142, y: -0.0004703104, z: -0.23757051, w: 0.9713678}
    - {x: -0.00072132144, y: 0.012692659, z: -0.040420394, w: 0.9991019}
    - {x: 6.938894e-18, y: -9.62965e-35, z: -1.3877788e-17, w: 1}
    - {x: -0.5269183, y: -0.32674035, z: -0.5840246, w: 0.52394}
    - {x: -0.059614867, y: 0.13516304, z: -0.06913207, w: 0.9866093}
    - {x: 0.0018961236, y: 0.00013150928, z: -0.10644623, w: 0.99431664}
    - {x: -0.00201019, y: 0.052079126, z: 0.073525675, w: 0.99593055}
    - {x: 0, y: 0, z: 1.9081958e-17, w: 1}
    - {x: 0.20274544, y: 0.59426665, z: 0.2494411, w: 0.73723847}
    - {x: 0.6235274, y: -0.66380864, z: -0.29373443, w: -0.29033053}
    - {x: 0.6780625, y: -0.6592852, z: -0.26568344, w: -0.18704711}
    - {x: 0.7367927, y: -0.6347571, z: -0.14393571, w: -0.18303718}
    - {x: 0.7584072, y: -0.6393418, z: -0.12667806, w: -0.0036594148}
  applyToSkeletonRoot: 1
