%YAML 1.1
%TAG !u! tag:unity3d.com,2011:
--- !u!114 &11400000
MonoBehaviour:
  m_ObjectHideFlags: 0
  m_CorrespondingSourceObject: {fileID: 0}
  m_PrefabInstance: {fileID: 0}
  m_PrefabAsset: {fileID: 0}
  m_GameObject: {fileID: 0}
  m_Enabled: 1
  m_EditorHideFlags: 0
  m_Script: {fileID: 11500000, guid: aa29fccb40bb481f80c263795c384c63, type: 3}
  m_Name: Measurement_ManualTutorialLevel
  m_EditorClassIdentifier: 
  levelTime: 0
  resetCount: 0
  isSuccessful: 0
