%YAML 1.1
%TAG !u! tag:unity3d.com,2011:
--- !u!1 &7621257972871583962
GameObject:
  m_ObjectHideFlags: 0
  m_CorrespondingSourceObject: {fileID: 0}
  m_PrefabInstance: {fileID: 0}
  m_PrefabAsset: {fileID: 0}
  serializedVersion: 6
  m_Component:
  - component: {fileID: 7621257972871583940}
  - component: {fileID: 7621257972871583963}
  - component: {fileID: 7621257972871583941}
  m_Layer: 0
  m_Name: TutorialConfigurationManager
  m_TagString: Untagged
  m_Icon: {fileID: 0}
  m_NavMeshLayer: 0
  m_StaticEditorFlags: 0
  m_IsActive: 1
--- !u!4 &7621257972871583940
Transform:
  m_ObjectHideFlags: 0
  m_CorrespondingSourceObject: {fileID: 0}
  m_PrefabInstance: {fileID: 0}
  m_PrefabAsset: {fileID: 0}
  m_GameObject: {fileID: 7621257972871583962}
  m_LocalRotation: {x: 0, y: 0, z: 0, w: 1}
  m_LocalPosition: {x: 3.0142202, y: 0.44531417, z: 1.8411237}
  m_LocalScale: {x: 1, y: 1, z: 1}
  m_ConstrainProportionsScale: 0
  m_Children: []
  m_Father: {fileID: 0}
  m_RootOrder: 5
  m_LocalEulerAnglesHint: {x: 0, y: 0, z: 0}
--- !u!114 &7621257972871583963
MonoBehaviour:
  m_ObjectHideFlags: 0
  m_CorrespondingSourceObject: {fileID: 0}
  m_PrefabInstance: {fileID: 0}
  m_PrefabAsset: {fileID: 0}
  m_GameObject: {fileID: 7621257972871583962}
  m_Enabled: 1
  m_EditorHideFlags: 0
  m_Script: {fileID: 11500000, guid: aa36c0fa2f8767241a60ec11051334c4, type: 3}
  m_Name: 
  m_EditorClassIdentifier: 
  executionMode: 4
  tutorialEventManager: {fileID: 0}
  videoTutorialScript: {fileID: 0}
  ghostTutorialScript: {fileID: 0}
  ShowOnlySingleCollisionAndSingleTrigger: 1
  OffsetTimeForGhostAnimationsToText: 0.5
--- !u!114 &7621257972871583941
MonoBehaviour:
  m_ObjectHideFlags: 0
  m_CorrespondingSourceObject: {fileID: 0}
  m_PrefabInstance: {fileID: 0}
  m_PrefabAsset: {fileID: 0}
  m_GameObject: {fileID: 7621257972871583962}
  m_Enabled: 1
  m_EditorHideFlags: 0
  m_Script: {fileID: 11500000, guid: d4266ad3788dca74e9dc47a28b1cb12a, type: 3}
  m_Name: 
  m_EditorClassIdentifier: 
  startTimeInUnix: 0
  gameDuration: 0
  gameWasWon: 0
