%YAML 1.1
%TAG !u! tag:unity3d.com,2011:
--- !u!114 &-7840838968154273466
MonoBehaviour:
  m_ObjectHideFlags: 11
  m_CorrespondingSourceObject: {fileID: 0}
  m_PrefabInstance: {fileID: 0}
  m_PrefabAsset: {fileID: 0}
  m_GameObject: {fileID: 0}
  m_Enabled: 1
  m_EditorHideFlags: 0
  m_Script: {fileID: 11500000, guid: d0353a89b1f911e48b9e16bdc9f2e058, type: 3}
  m_Name: 
  m_EditorClassIdentifier: 
  version: 6
--- !u!21 &2100000
Material:
  serializedVersion: 8
  m_ObjectHideFlags: 0
  m_CorrespondingSourceObject: {fileID: 0}
  m_PrefabInstance: {fileID: 0}
  m_PrefabAsset: {fileID: 0}
  m_Name: M_Blackboard
  m_Shader: {fileID: -6465566751694194690, guid: d1a4c4ca08b73c643b44b89e70b410f1,
    type: 3}
  m_Parent: {fileID: 0}
  m_ModifiedSerializedProperties: 0
  m_ValidKeywords: []
  m_InvalidKeywords: []
  m_LightmapFlags: 2
  m_EnableInstancingVariants: 0
  m_DoubleSidedGI: 0
  m_CustomRenderQueue: -1
  stringTagMap: {}
  disabledShaderPasses: []
  m_LockedProperties: 
  m_SavedProperties:
    serializedVersion: 3
    m_TexEnvs:
    - _BaseColor:
        m_Texture: {fileID: 2800000, guid: 79750cc5a5b393644a24bdd64bc7c64f, type: 3}
        m_Scale: {x: 1, y: 1}
        m_Offset: {x: 0, y: 0}
    - _Normal_Map:
        m_Texture: {fileID: 2800000, guid: fa6eb605f4a18aa4d88672ed1d06cf85, type: 3}
        m_Scale: {x: 1, y: 1}
        m_Offset: {x: 0, y: 0}
    - _ORM:
        m_Texture: {fileID: 2800000, guid: 79ea8fb8264951643beb7b75354a66f2, type: 3}
        m_Scale: {x: 1, y: 1}
        m_Offset: {x: 0, y: 0}
    - unity_Lightmaps:
        m_Texture: {fileID: 0}
        m_Scale: {x: 1, y: 1}
        m_Offset: {x: 0, y: 0}
    - unity_LightmapsInd:
        m_Texture: {fileID: 0}
        m_Scale: {x: 1, y: 1}
        m_Offset: {x: 0, y: 0}
    - unity_ShadowMasks:
        m_Texture: {fileID: 0}
        m_Scale: {x: 1, y: 1}
        m_Offset: {x: 0, y: 0}
    m_Ints: []
    m_Floats:
    - _AcuteDepthThreshold: 1
    - _Alpha_Clip: 0.5
    - _DepthStrength: 2
    - _DepthThreshold: 1
    - _DepthTightening: 1
    - _Dithering: 1
    - _EmissionPower: 0
    - _FarNormalEndDepth: 1
    - _FarNormalStartDepth: 1
    - _FarNormalThreshold: 1
    - _FresnelPower: 2
    - _HasHighlight: 0
    - _HueOffset: 0
    - _NormalStrength: 1
    - _NormalThreshold: 1
    - _NormalTightening: 1
    - _OutlinePower: 1
    - _Outline_Displacement: 0.005
    - _Outline_Emission_Power: 1
    - _QueueControl: 0
    - _QueueOffset: 0
    - _Smoothness_Multiplier: 1
    - _StepEdge: 1
    - _Texture_Brightness: 1
    - _Thickness: 0.005
    m_Colors:
    - _Outline_Color: {r: 0.7339371, g: 1, b: 0, a: 0}
  m_BuildTextureStacks: []
