%YAML 1.1
%TAG !u! tag:unity3d.com,2011:
--- !u!1045 &1
EditorBuildSettings:
  m_ObjectHideFlags: 0
  serializedVersion: 2
  m_Scenes:
  - enabled: 1
    path: Assets/AGTIV/Scene/00_scene_LimeSurvey_PreQuestionnaire.unity
    guid: 34677bb65424311489bcafe64aac7bde
  - enabled: 1
    path: Assets/AGTIV/Scene/01a_scene_Bedroom_PrepareForTutorial_auto.unity
    guid: 68054a4fe65081e42bd577a448f8f8c3
  - enabled: 1
    path: Assets/AGTIV/Scene/02_scene_Bedroom_Challenge_Gameplay.unity
    guid: 20f51e387ea987949b5ab114127d09ca
  - enabled: 1
    path: Assets/AGTIV/Scene/03_scene_LimeSurvey_PostQuestionnaire.unity
    guid: 8d824f9138c9d6145aaee05f983e0f6b
  - enabled: 1
    path: Assets/AGTIV/Scene/01b_scene_Bedroom_PrepareForTutorial_manual.unity
    guid: 5025b2462055a07418dbffd0d914ebbe
  - enabled: 1
    path: Assets/AGTIV/Scene/04_scene_LimeSurvey_UserPreferences.unity
    guid: edb8d4e34f6b2004d90bb41f4ecde010
  - enabled: 1
    path: Assets/AGTIV/Scene/05_simple_interactionTutorial.unity
    guid: aa2dde36a06a01d4995f5e1dc42c5b08
  - enabled: 1
    path: Assets/AGTIV/Scene/06_scene_transition.unity
    guid: 92d213c0679b01a4e87cf7470b7c764a
  m_configObjects:
    Unity.XR.OpenVR.Settings: {fileID: 11400000, guid: bda30bc2865341f428391a1ad5783d03,
      type: 2}
    com.unity.xr.management.loader_settings: {fileID: 11400000, guid: 927797067e72b6b4e962ed2b30d6285f,
      type: 2}
    com.unity.xr.openxr.settings4: {fileID: 11400000, guid: 8897e7b042fcc3644b31b49d076809db,
      type: 2}
